{
  "cols": 1,
  "data": [
    -1.9010884271922768,
    -0.1525291860435431,
    -2.3195060068133637,
    -0.008652587351248651,
    -0.6000531908954987,
    -0.7864976555865416,
    0.21780676428157364,
    -0.9707997046617498,
    -0.1463755466633778,
    -0.8072297218567328,
    -0.010564982064830508,
    1.3297682648217528,
    -2.1854483803796207,
    -1.2857105794300077,
    -0.24662916934017326,
    0.43845298406848726
  ],
  "paramName": "acrobotPredict.agent0.mode.start.t.l1.a",
  "rows": 16,
  "sourceLoc": "/Users/tlb/yoga2/examples/acrobot/acrobot_predict.yoga:17:15"
}