{
  "cols": 1,
  "data": [
    1.1957234263474201,
    0.3650375127232791,
    0.9284017553183096,
    0.4651104105614812,
    -0.29904412752053233,
    0.38865194723380425,
    -0.4771679641003496,
    0.0022368989568526945,
    0.033763749460844796,
    0.3417778659769793,
    -0.29464026905494284,
    1.2294708770178286,
    0.7299051326448303,
    0.981348816012473,
    -0.985645659591038,
    -0.3357570439034385
  ],
  "paramName": "acrobotPredict.agent0.mode.up.t.l1.a",
  "rows": 16,
  "sourceLoc": "/Users/tlb/yoga2/examples/acrobot/acrobot_predict.yoga:29:15"
}